…
#### Loading the dataset

``` r
astronauts <- read_csv("https://raw.githubusercontent.com/rfordatascience/tidytuesday/master/data/2020/2020-07-14/astronauts.csv")

astronauts %>%
  count(in_orbit, sort = TRUE)
```

    ## # A tibble: 289 x 2
    ##    in_orbit      n
    ##    <chr>     <int>
    ##  1 ISS         174
    ##  2 Mir          71
    ##  3 Salyut 6     24
    ##  4 Salyut 7     24
    ##  5 STS-42        8
    ##  6 explosion     7
    ##  7 STS-103       7
    ##  8 STS-107       7
    ##  9 STS-109       7
    ## 10 STS-110       7
    ## # ... with 279 more rows
…
